{
  "$schema": "http://schema.management.azure.com/schemas/2015-01-01/deploymentParameters.json#",
  "contentVersion": "1.0.0.0",
  "parameters": {
    "adminUsername": {
      "value": "devops"
    },
    "adminPassword": {
      "value": "GEN-PASSWORD"
    },
    "dnsLabelPrefix": {
      "value": "GEN-UNIQUE"
    },
    "ubuntuOSVersion": {
      "value": "14.04.2-LTS"
    }
  }
}
